COM101-1-6130-996130-22-24
COM101-2-6131-996131-14-29
COM101-1-6132-996132-10-41
COM101-3-6133-996133-18-26
COM101-3-6134-996134-22-37
COM101-2-6135-996135-30-12
COM101-1-6136-996136-10-59
COM101-3-6137-996137-25-68
COM101-1-6138-996138-15-22
COM101-2-6139-996139-12-70
COM101-3-6142-996142-26-30
COM101-1-6143-996143-17-17
COM101-2-6144-996144-23-26
COM101-3-6145-996145-25-43
COM101-2-6146-996146-30-48
COM101-2-6147-996147-30-66
COM101-1-6148-996148-11-66
COM101-3-6149-996149-16-49
COM101-2-6150-996150-25-54
COM101-2-6151-996151-27-12
COM101-1-6155-996155-19-69
COM101-1-6156-996156-27-50
COM101-3-6162-996162-25-20
COM101-3-6163-996163-26-45
COM101-1-6164-996164-14-51
COM101-2-6165-996165-28-42
COM101-3-6166-996166-12-68
COM101-3-6167-996167-12-25
COM101-1-6168-996168-15-60
COM101-2-6169-996169-20-50
COM101-3-6170-996170-21-50
COM101-3-6171-996171-21-20
COM101-3-6172-996172-10-53
COM101-1-6173-996173-14-66
COM101-3-6174-996174-13-27
COM101-3-6175-996175-18-11
COM101-2-6176-996176-17-15
COM101-1-6177-996177-10-56
COM101-2-6178-996178-24-32
COM101-3-6179-996179-18-67
COM101-2-6180-996180-23-25
COM101-3-6181-996181-20-13
COM101-2-6182-996182-13-67
COM101-1-6183-996183-29-46
COM101-2-6184-996184-28-70
COM101-2-6185-996185-23-24
COM101-2-6186-996186-17-42
COM101-1-6190-996190-24-18
COM101-2-6191-996191-18-45
COM101-3-6192-996192-30-21
COM112-2-6130-996130-17-21
COM112-2-6131-996131-10-23
COM112-3-6132-996132-13-58
COM112-1-6133-996133-21-29
COM112-2-6134-996134-27-35
COM112-3-6135-996135-23-10
COM112-2-6136-996136-21-66
COM112-2-6137-996137-29-43
COM112-3-6138-996138-30-26
COM112-3-6139-996139-28-19
COM112-3-6142-996142-19-55
COM112-2-6143-996143-11-27
COM112-1-6144-996144-17-25
COM112-1-6145-996145-20-60
COM112-2-6146-996146-16-43
COM112-3-6147-996147-22-35
COM112-3-6148-996148-15-36
COM112-3-6149-996149-25-49
COM112-3-6150-996150-30-15
COM112-2-6151-996151-19-31
COM112-2-6155-996155-14-28
COM112-2-6156-996156-19-59
COM112-2-6162-996162-28-51
COM112-2-6163-996163-14-10
COM112-2-6164-996164-19-66
COM112-1-6165-996165-28-67
COM112-1-6166-996166-30-15
COM112-2-6167-996167-28-58
COM112-3-6168-996168-22-60
COM112-1-6169-996169-27-23
COM112-1-6170-996170-23-46
COM112-1-6171-996171-10-46
COM112-2-6172-996172-27-10
COM112-2-6173-996173-22-27
COM112-2-6174-996174-25-70
COM112-3-6175-996175-24-62
COM112-2-6176-996176-27-12
COM112-2-6177-996177-28-29
COM112-3-6178-996178-25-42
COM112-2-6179-996179-16-36
COM112-3-6180-996180-23-67
COM112-3-6181-996181-10-67
COM112-1-6182-996182-20-12
COM112-3-6183-996183-10-57
COM112-3-6184-996184-11-23
COM112-2-6185-996185-26-30
COM112-3-6186-996186-19-55
COM112-2-6190-996190-17-56
COM112-1-6191-996191-13-67
COM112-2-6192-996192-20-19
COM113-1-6130-996130-20-39
COM113-3-6131-996131-15-60
COM113-3-6132-996132-23-47
COM113-1-6133-996133-28-43
COM113-2-6134-996134-10-39
COM113-3-6135-996135-16-61
COM113-3-6136-996136-22-27
COM113-3-6137-996137-15-20
COM113-1-6138-996138-30-44
COM113-3-6139-996139-21-23
COM113-3-6142-996142-25-39
COM113-2-6143-996143-17-20
COM113-3-6144-996144-25-10
COM113-1-6145-996145-20-64
COM113-1-6146-996146-14-23
COM113-1-6147-996147-20-24
COM113-3-6148-996148-14-44
COM113-3-6149-996149-13-25
COM113-1-6150-996150-23-12
COM113-1-6151-996151-20-40
COM113-2-6155-996155-26-42
COM113-1-6156-996156-12-22
COM113-2-6162-996162-15-70
COM113-2-6163-996163-21-47
COM113-3-6164-996164-18-52
COM113-3-6165-996165-17-19
COM113-3-6166-996166-23-44
COM113-2-6167-996167-20-54
COM113-2-6168-996168-19-30
COM113-1-6169-996169-19-70
COM113-3-6170-996170-30-61
COM113-1-6171-996171-22-42
COM113-1-6172-996172-28-24
COM113-1-6173-996173-18-19
COM113-2-6174-996174-29-28
COM113-3-6175-996175-24-19
COM113-3-6176-996176-10-50
COM113-3-6177-996177-26-42
COM113-3-6178-996178-23-11
COM113-2-6179-996179-30-26
COM113-1-6180-996180-27-35
COM113-1-6181-996181-21-42
COM113-1-6182-996182-25-41
COM113-2-6183-996183-15-10
COM113-1-6184-996184-24-57
COM113-1-6185-996185-16-14
COM113-1-6186-996186-19-58
COM113-3-6190-996190-27-13
COM113-2-6191-996191-20-40
COM113-2-6192-996192-10-42
STA111-3-6130-996130-18-35
STA111-2-6131-996131-19-43
STA111-2-6132-996132-25-65
STA111-3-6133-996133-15-61
STA111-2-6134-996134-24-34
STA111-1-6135-996135-19-18
STA111-2-6136-996136-14-55
STA111-2-6137-996137-11-34
STA111-1-6138-996138-11-27
STA111-2-6139-996139-22-10
STA111-2-6142-996142-17-28
STA111-2-6143-996143-30-16
STA111-3-6144-996144-23-16
STA111-3-6145-996145-12-58
STA111-2-6146-996146-12-32
STA111-1-6147-996147-30-32
STA111-2-6148-996148-11-32
STA111-1-6149-996149-27-49
STA111-3-6150-996150-28-23
STA111-3-6151-996151-22-16
STA111-1-6155-996155-20-18
STA111-1-6156-996156-10-24
STA111-3-6162-996162-21-49
STA111-2-6163-996163-29-54
STA111-3-6164-996164-23-65
STA111-1-6165-996165-20-53
STA111-3-6166-996166-21-66
STA111-3-6167-996167-20-16
STA111-1-6168-996168-21-55
STA111-1-6169-996169-20-55
STA111-1-6170-996170-25-60
STA111-3-6171-996171-15-51
STA111-1-6172-996172-30-20
STA111-3-6173-996173-27-38
STA111-1-6174-996174-21-49
STA111-2-6175-996175-26-31
STA111-1-6176-996176-10-22
STA111-2-6177-996177-25-43
STA111-3-6178-996178-28-19
STA111-2-6179-996179-13-41
STA111-1-6180-996180-18-33
STA111-1-6181-996181-10-19
STA111-3-6182-996182-13-49
STA111-2-6183-996183-27-15
STA111-2-6184-996184-14-55
STA111-1-6185-996185-30-66
STA111-1-6186-996186-15-63
STA111-1-6190-996190-28-38
STA111-3-6191-996191-12-59
STA111-2-6192-996192-17-10
STA112-3-6130-996130-23-19
STA112-3-6131-996131-27-44
STA112-2-6132-996132-15-47
STA112-2-6133-996133-20-15
STA112-3-6134-996134-13-25
STA112-3-6135-996135-24-57
STA112-3-6136-996136-17-52
STA112-1-6137-996137-12-28
STA112-3-6138-996138-15-37
STA112-2-6139-996139-10-11
STA112-3-6142-996142-21-14
STA112-2-6143-996143-21-29
STA112-2-6144-996144-26-42
STA112-1-6145-996145-28-53
STA112-3-6146-996146-19-28
STA112-1-6147-996147-21-26
STA112-1-6148-996148-14-56
STA112-3-6149-996149-24-55
STA112-3-6150-996150-15-33
STA112-3-6151-996151-17-61
STA112-2-6155-996155-18-67
STA112-3-6156-996156-22-41
STA112-1-6162-996162-22-62
STA112-3-6163-996163-27-20
STA112-2-6164-996164-26-31
STA112-3-6165-996165-11-67
STA112-1-6166-996166-23-56
STA112-2-6167-996167-14-66
STA112-1-6168-996168-16-56
STA112-1-6169-996169-13-36
STA112-3-6170-996170-10-48
STA112-3-6171-996171-16-25
STA112-2-6172-996172-15-38
STA112-3-6173-996173-19-64
STA112-2-6174-996174-29-39
STA112-3-6175-996175-17-59
STA112-1-6176-996176-23-24
STA112-3-6177-996177-27-53
STA112-1-6178-996178-10-62
STA112-3-6179-996179-12-56
STA112-2-6180-996180-27-31
STA112-1-6181-996181-30-60
STA112-1-6182-996182-18-57
STA112-3-6183-996183-30-56
STA112-2-6184-996184-25-46
STA112-2-6185-996185-27-47
STA112-3-6186-996186-26-58
STA112-1-6190-996190-23-68
STA112-1-6191-996191-26-25
STA112-3-6192-996192-30-10
MTH111-3-6130-996130-16-66
MTH111-1-6131-996131-18-10
MTH111-3-6132-996132-27-16
MTH111-2-6133-996133-19-33
MTH111-3-6134-996134-23-52
MTH111-2-6135-996135-10-14
MTH111-2-6136-996136-17-36
MTH111-3-6137-996137-25-51
MTH111-2-6138-996138-29-19
MTH111-3-6139-996139-27-59
MTH111-2-6142-996142-13-11
MTH111-3-6143-996143-28-26
MTH111-3-6144-996144-26-59
MTH111-3-6145-996145-22-32
MTH111-2-6146-996146-26-18
MTH111-2-6147-996147-18-15
MTH111-3-6148-996148-19-53
MTH111-3-6149-996149-21-35
MTH111-1-6150-996150-10-45
MTH111-3-6151-996151-17-42
MTH111-3-6155-996155-20-33
MTH111-1-6156-996156-21-15
MTH111-1-6162-996162-16-47
MTH111-2-6163-996163-16-40
MTH111-2-6164-996164-13-62
MTH111-1-6165-996165-26-14
MTH111-2-6166-996166-22-12
MTH111-3-6167-996167-14-34
MTH111-1-6168-996168-10-51
MTH111-1-6169-996169-12-40
MTH111-3-6170-996170-14-17
MTH111-1-6171-996171-23-18
MTH111-2-6172-996172-16-61
MTH111-1-6173-996173-26-12
MTH111-1-6174-996174-12-49
MTH111-3-6175-996175-23-18
MTH111-3-6176-996176-22-66
MTH111-3-6177-996177-22-61
MTH111-1-6178-996178-25-64
MTH111-2-6179-996179-25-27
MTH111-1-6180-996180-12-66
MTH111-3-6181-996181-27-44
MTH111-1-6182-996182-29-50
MTH111-2-6183-996183-29-70
MTH111-2-6184-996184-19-33
MTH111-2-6185-996185-15-31
MTH111-3-6186-996186-12-22
MTH111-3-6190-996190-25-20
MTH111-2-6191-996191-27-29
MTH111-3-6192-996192-12-64
MTH112-1-6130-996130-14-28
MTH112-2-6131-996131-15-22
MTH112-3-6132-996132-28-28
MTH112-2-6133-996133-15-28
MTH112-2-6134-996134-23-26
MTH112-3-6135-996135-30-12
MTH112-1-6136-996136-26-29
MTH112-1-6137-996137-30-26
MTH112-3-6138-996138-15-62
MTH112-3-6139-996139-29-13
MTH112-3-6142-996142-12-66
MTH112-1-6143-996143-30-66
MTH112-3-6144-996144-20-32
MTH112-1-6145-996145-24-19
MTH112-1-6146-996146-12-18
MTH112-1-6147-996147-22-67
MTH112-3-6148-996148-16-44
MTH112-1-6149-996149-14-56
MTH112-1-6150-996150-18-41
MTH112-1-6151-996151-21-39
MTH112-3-6155-996155-10-54
MTH112-1-6156-996156-11-56
MTH112-1-6162-996162-13-13
MTH112-3-6163-996163-14-21
MTH112-2-6164-996164-22-50
MTH112-3-6165-996165-16-45
MTH112-1-6166-996166-10-29
MTH112-2-6167-996167-16-23
MTH112-2-6168-996168-18-48
MTH112-2-6169-996169-19-16
MTH112-2-6170-996170-12-29
MTH112-3-6171-996171-12-24
MTH112-2-6172-996172-17-35
MTH112-1-6173-996173-21-57
MTH112-2-6174-996174-13-45
MTH112-3-6175-996175-18-33
MTH112-3-6176-996176-28-28
MTH112-3-6177-996177-10-37
MTH112-2-6178-996178-15-19
MTH112-3-6179-996179-20-30
MTH112-3-6180-996180-27-13
MTH112-2-6181-996181-11-45
MTH112-3-6182-996182-12-43
MTH112-3-6183-996183-14-24
MTH112-2-6184-996184-24-70
MTH112-3-6185-996185-11-12
MTH112-2-6186-996186-27-60
MTH112-1-6190-996190-25-54
MTH112-1-6191-996191-17-62
MTH112-1-6192-996192-13-25
OTM102-3-6130-996130-12-39
OTM102-2-6131-996131-28-10
OTM102-1-6132-996132-13-67
OTM102-3-6133-996133-27-17
OTM102-2-6134-996134-11-45
OTM102-2-6135-996135-29-52
OTM102-3-6136-996136-11-12
OTM102-1-6137-996137-12-12
OTM102-2-6138-996138-18-48
OTM102-1-6139-996139-24-68
OTM102-2-6142-996142-20-36
OTM102-3-6143-996143-21-67
OTM102-1-6144-996144-15-51
OTM102-2-6145-996145-19-37
OTM102-2-6146-996146-16-64
OTM102-3-6147-996147-13-22
OTM102-1-6148-996148-15-24
OTM102-1-6149-996149-29-30
OTM102-3-6150-996150-29-52
OTM102-3-6151-996151-20-55
OTM102-3-6155-996155-23-31
OTM102-2-6156-996156-19-26
OTM102-1-6162-996162-16-48
OTM102-2-6163-996163-21-69
OTM102-1-6164-996164-29-43
OTM102-2-6165-996165-26-34
OTM102-1-6166-996166-26-69
OTM102-3-6167-996167-28-59
OTM102-1-6168-996168-18-62
OTM102-3-6169-996169-15-34
OTM102-3-6170-996170-15-41
OTM102-1-6171-996171-20-48
OTM102-3-6172-996172-24-60
OTM102-2-6173-996173-22-34
OTM102-3-6174-996174-14-42
OTM102-1-6175-996175-30-31
OTM102-1-6176-996176-28-38
OTM102-1-6177-996177-11-14
OTM102-3-6178-996178-20-59
OTM102-2-6179-996179-16-33
OTM102-1-6180-996180-24-29
OTM102-2-6181-996181-20-45
OTM102-1-6182-996182-20-47
OTM102-3-6183-996183-10-49
OTM102-3-6184-996184-15-34
OTM102-1-6185-996185-13-43
OTM102-3-6186-996186-13-55
OTM102-1-6190-996190-13-41
OTM102-2-6191-996191-15-26
OTM102-1-6192-996192-27-20
GNS127-1-6130-996130-29-38
GNS127-3-6131-996131-16-66
GNS127-3-6132-996132-28-66
GNS127-1-6133-996133-25-15
GNS127-2-6134-996134-23-45
GNS127-1-6135-996135-18-25
GNS127-1-6136-996136-24-66
GNS127-3-6137-996137-26-38
GNS127-1-6138-996138-24-31
GNS127-2-6139-996139-10-37
GNS127-1-6142-996142-28-27
GNS127-1-6143-996143-13-66
GNS127-2-6144-996144-11-44
GNS127-1-6145-996145-14-63
GNS127-1-6146-996146-12-43
GNS127-2-6147-996147-23-50
GNS127-3-6148-996148-12-40
GNS127-2-6149-996149-19-37
GNS127-1-6150-996150-21-54
GNS127-3-6151-996151-21-30
GNS127-1-6155-996155-25-67
GNS127-2-6156-996156-27-46
GNS127-1-6162-996162-28-33
GNS127-1-6163-996163-23-13
GNS127-3-6164-996164-17-20
GNS127-1-6165-996165-28-23
GNS127-1-6166-996166-13-41
GNS127-3-6167-996167-14-42
GNS127-2-6168-996168-29-69
GNS127-2-6169-996169-22-52
GNS127-1-6170-996170-13-51
GNS127-3-6171-996171-11-63
GNS127-3-6172-996172-25-47
GNS127-2-6173-996173-20-68
GNS127-1-6174-996174-30-64
GNS127-3-6175-996175-19-57
GNS127-2-6176-996176-27-64
GNS127-2-6177-996177-23-35
GNS127-2-6178-996178-15-51
GNS127-1-6179-996179-12-33
GNS127-3-6180-996180-20-15
GNS127-3-6181-996181-21-68
GNS127-2-6182-996182-14-15
GNS127-3-6183-996183-18-31
GNS127-3-6184-996184-25-69
GNS127-3-6185-996185-16-70
GNS127-1-6186-996186-19-49
GNS127-1-6190-996190-11-59
GNS127-1-6191-996191-28-60
GNS127-3-6192-996192-17-36